{
  "collectionName": "components_sections_breakers",
  "info": {
    "displayName": "image",
    "icon": "image",
    "description": ""
  },
  "options": {},
  "attributes": {
    "image": {
      "allowedTypes": [
        "images",
        "files",
        "videos",
        "audios"
      ],
      "type": "media",
      "multiple": true
    }
  }
}
